{
  "transactions": [
    {
      "id": 61,
      "date": "2019-02-28",
      "creditId": 2,
      "money": 710.0
    },
    {
      "id": 62,
      "date": "2019-02-28",
      "creditId": 8,
      "money": 990.0
    },
    {
      "id": 63,
      "date": "2019-03-10",
      "creditId": 5,
      "money": 1010.0
    },
    {
      "id": 64,
      "date": "2019-03-15",
      "creditId": 4,
      "money": 1560.0
    },
    {
      "id": 65,
      "date": "2019-03-15",
      "creditId": 6,
      "money": 1700.0
    },
    {
      "id": 66,
      "date": "2019-03-15",
      "creditId": 0,
      "money": 920.0
    },
    {
      "id": 67,
      "date": "2019-03-20",
      "creditId": 7,
      "money": 1830.0
    },
    {
      "id": 68,
      "date": "2019-03-25",
      "creditId": 3,
      "money": 2010.0
    },
    {
      "id": 69,
      "date": "2019-03-30",
      "creditId": 1,
      "money": 1250.0
    },
    {
      "id": 70,
      "date": "2019-03-30",
      "creditId": 2,
      "money": 710.0
    },
    {
      "id": 71,
      "date": "2019-03-30",
      "creditId": 8,
      "money": 990.0
    },
    {
      "id": 72,
      "date": "2019-04-10",
      "creditId": 5,
      "money": 1010.0
    },
    {
      "id": 73,
      "date": "2019-04-15",
      "creditId": 4,
      "money": 1560.0
    },
    {
      "id": 74,
      "date": "2019-04-15",
      "creditId": 6,
      "money": 1700.0
    },
    {
      "id": 75,
      "date": "2019-04-15",
      "creditId": 0,
      "money": 920.0
    },
    {
      "id": 76,
      "date": "2019-04-20",
      "creditId": 7,
      "money": 1830.0
    },
    {
      "id": 77,
      "date": "2019-04-25",
      "creditId": 3,
      "money": 2010.0
    },
    {
      "id": 78,
      "date": "2019-04-30",
      "creditId": 1,
      "money": 1250.0
    },
    {
      "id": 79,
      "date": "2019-04-30",
      "creditId": 2,
      "money": 710.0
    },
    {
      "id": 80,
      "date": "2019-04-30",
      "creditId": 8,
      "money": 990.0
    },
    {
      "id": 81,
      "date": "2019-05-10",
      "creditId": 5,
      "money": 1010.0
    },
    {
      "id": 82,
      "date": "2019-05-15",
      "creditId": 0,
      "money": 920.0
    },
    {
      "id": 83,
      "date": "2019-05-15",
      "creditId": 4,
      "money": 1560.0
    },
    {
      "id": 84,
      "date": "2019-05-15",
      "creditId": 6,
      "money": 1700.0
    }
  ]
}